{
  "success": true,
  "message": "Data posts berhasil diambil",
  "data": [
    {
      "id": 117,
      "caption": "Beach day with friends ğŸ–ï¸ #beach #friends #summer",
      "image": "https://picsum.photos/800/600?random=17",
      "created_at": "2025-07-15 03:24:59",
      "updated_at": "2025-07-15 03:24:59",
      "user": {
        "id": 24,
        "name": "Wendy Scott",
        "username": "wendyscott",
        "email": null,
        "avatar": "https://randomuser.me/api/portraits/women/12.jpg",
        "email_verified_at": null,
        "created_at": null,
        "updated_at": null
      },
      "likes_count": 3,
      "comments_count": 8,
      "is_liked_by_user": true
    },
    {
      "id": 113,
      "caption": "Good food, good mood! ğŸ• #foodie #delicious",
      "image": "https://picsum.photos/800/600?random=11",
      "created_at": "2025-07-14 03:24:59",
      "updated_at": "2025-07-14 03:24:59",
      "user": {
        "id": 23,
        "name": "Victor King",
        "username": "victorking",
        "email": null,
        "avatar": "https://randomuser.me/api/portraits/men/12.jpg",
        "email_verified_at": null,
        "created_at": null,
        "updated_at": null
      },
      "likes_count": 4,
      "comments_count": 1,
      "is_liked_by_user": false
    },
    {
      "id": 112,
      "caption": "New project launch! Excited to share ğŸš€ #project #excited",
      "image": "https://picsum.photos/800/600?random=13",
      "created_at": "2025-07-13 21:24:59",
      "updated_at": "2025-07-13 21:24:59",
      "user": {
        "id": 23,
        "name": "Victor King",
        "username": "victorking",
        "email": null,
        "avatar": "https://randomuser.me/api/portraits/men/12.jpg",
        "email_verified_at": null,
        "created_at": null,
        "updated_at": null
      },
      "likes_count": 3,
      "comments_count": 7,
      "is_liked_by_user": false
    },
    {
      "id": 110,
      "caption": "Late night coding session ğŸŒ™ #developer #nightowl",
      "image": "https://picsum.photos/800/600?random=18",
      "created_at": "2025-07-13 09:24:59",
      "updated_at": "2025-07-13 09:24:59",
      "user": {
        "id": 23,
        "name": "Victor King",
        "username": "victorking",
        "email": null,
        "avatar": "https://randomuser.me/api/portraits/men/12.jpg",
        "email_verified_at": null,
        "created_at": null,
        "updated_at": null
      },
      "likes_count": 2,
      "comments_count": 1,
      "is_liked_by_user": false
    },
    {
      "id": 107,
      "caption": "Working hard for my dreams ğŸ’ª #motivation #hustle",
      "image": "https://picsum.photos/800/600?random=7",
      "created_at": "2025-07-12 15:24:59",
      "updated_at": "2025-07-12 15:24:59",
      "user": {
        "id": 23,
        "name": "Victor King",
        "username": "victorking",
        "email": null,
        "avatar": "https://randomuser.me/api/portraits/men/12.jpg",
        "email_verified_at": null,
        "created_at": null,
        "updated_at": null
      },
      "likes_count": 3,
      "comments_count": 5,
      "is_liked_by_user": false
    },
    {
      "id": 106,
      "caption": "Reading a good book by the window ğŸ“š #reading #cozy",
      "image": "https://picsum.photos/800/600?random=16",
      "created_at": "2025-07-12 09:24:59",
      "updated_at": "2025-07-12 09:24:59",
      "user": {
        "id": 22,
        "name": "Tina Young",
        "username": "tinayoung",
        "email": null,
        "avatar": "https://randomuser.me/api/portraits/women/11.jpg",
        "email_verified_at": null,
        "created_at": null,
        "updated_at": null
      },
      "likes_count": 2,
      "comments_count": 3,
      "is_liked_by_user": false
    },
    {
      "id": 104,
      "caption": "Selamat pagi! Hari yang indah untuk memulai aktivitas baru ğŸŒ…",
      "image": "https://picsum.photos/800/600?random=15",
      "created_at": "2025-07-11 21:24:59",
      "updated_at": "2025-07-11 21:24:59",
      "user": {
        "id": 22,
        "name": "Tina Young",
        "username": "tinayoung",
        "email": null,
        "avatar": "https://randomuser.me/api/portraits/women/11.jpg",
        "email_verified_at": null,
        "created_at": null,
        "updated_at": null
      },
      "likes_count": 4,
      "comments_count": 8,
      "is_liked_by_user": false
    },
    {
      "id": 101,
      "caption": "Exploring new places and making memories ğŸ—ºï¸ #travel #adventure",
      "image": "https://picsum.photos/800/600?random=13",
      "created_at": "2025-07-11 03:24:59",
      "updated_at": "2025-07-11 03:24:59",
      "user": {
        "id": 21,
        "name": "Samuel Hall",
        "username": "samuelhall",
        "email": null,
        "avatar": "https://randomuser.me/api/portraits/men/11.jpg",
        "email_verified_at": null,
        "created_at": null,
        "updated_at": null
      },
      "likes_count": 5,
      "comments_count": 6,
      "is_liked_by_user": false
    },
    {
      "id": 119,
      "caption": "Art gallery visit - so inspiring! ğŸ¨ #art #culture",
      "image": "https://picsum.photos/800/600?random=23",
      "created_at": "2025-07-10 17:24:59",
      "updated_at": "2025-07-10 17:24:59",
      "user": {
        "id": 25,
        "name": "Xavier Green",
        "username": "xaviergreen",
        "email": null,
        "avatar": "https://randomuser.me/api/portraits/men/13.jpg",
        "email_verified_at": null,
        "created_at": null,
        "updated_at": null
      },
      "likes_count": 4,
      "comments_count": 1,
      "is_liked_by_user": false
    },
    {
      "id": 111,
      "caption": "Sunset yang menakjubkan hari ini! ğŸŒ… #sunset #beautiful #nature",
      "image": "https://picsum.photos/800/600?random=30",
      "created_at": "2025-07-09 01:24:59",
      "updated_at": "2025-07-09 01:24:59",
      "user": {
        "id": 23,
        "name": "Victor King",
        "username": "victorking",
        "email": null,
        "avatar": "https://randomuser.me/api/portraits/men/12.jpg",
        "email_verified_at": null,
        "created_at": null,
        "updated_at": null
      },
      "likes_count": 2,
      "comments_count": 2,
      "is_liked_by_user": false
    }
  ],
  "meta": {
    "current_page": 1,
    "last_page": 12,
    "per_page": 10,
    "total": 120
  }
}
